A data story on the history of philosophy
…
LDA on schools

I will now transform the tidy dataframe into a DocumentTermMatrix using cast_dtm() because LDA() requires the data to be in a DocumentTermMatrix format. I can then use the LDA() function to create a 13-topic model. I used 13 topics specifically because I know there are 13 schools.

## A LDA_Gibbs topic model with 13 topics.

We can now examine the per-topic-per-word probabilities, called \(\beta\) (beta) from the model. The dataframe below is in a one-topic-per-term-per-row format, with each combination showing the probability of that term being generated from that topic. For instance, the term world has a \(9.34\times 10^{-4}\) probability of being generated from topic 1, but a \(2.14\times 10^{-2}\) probability of being generated from topic 9. This means that the word world has a higher probability of being generated from topic 9.

## # A tibble: 1,219,439 x 3
##    topic term         beta
##    <int> <chr>       <dbl>
##  1     1 world 0.000934   
##  2     2 world 0.00499    
##  3     3 world 0.00108    
##  4     4 world 0.00241    
##  5     5 world 0.000550   
##  6     6 world 0.00565    
##  7     7 world 0.000000604
##  8     8 world 0.00211    
##  9     9 world 0.0214     
## 10    10 world 0.00323    
## # ... with 1,219,429 more rows
…
It is highly likely that woman, women, love and black from topic 10 belong to the school of Feminism, while price, money, labour and capital from topic 5 seem to belong to the school of Capitalism. Also, words like thou, thy, ye and thee from topic 6 would likely belong to Stoicism or even Nietzsche since they use such Old English words in their texts.

Per-document classification

Each document in this analysis represents a school of philosophy. Therefore, we can know through the value of \(\gamma\) (gamma) the per-school-per-topic probabilities. For instance, the model estimates that each word in the Communism school/document has a \(67\%\) probability of coming from topic 1.

## # A tibble: 169 x 3
##    document        topic     gamma
##    <chr>           <int>     <dbl>
##  1 phenomenology       1 0.000354 
##  2 german_idealism     1 0.000787 
##  3 empiricism          1 0.000150 
##  4 communism           1 0.669    
##  5 rationalism         1 0.0000471
##  6 analytic            1 0.000184 
##  7 feminism            1 0.00712  
##  8 aristotle           1 0.0000860
##  9 capitalism          1 0.00465  
## 10 continental         1 0.00824  
## # ... with 159 more rows
…
